[{
   "name":"zero amount",
   "active":true,
   "automationTrigger":{
      "triggerType":"PaymentsExecution",
      "selectors":[{
         "name":"accountId"
      }],
      "filters":[  
         {  
           "name": "paymentAmount" ,
           "value":1,
           "condition":"LESS"
         }
      ]
   },
   "automationActions":[
      {  
         "actionType":"email",
         "name":"emailAddress"
      }
   ]
}]